<?xml version="1.0" encoding="utf-8"?>
<!-- Generator: Adobe Illustrator 22.1.0, SVG Export Plug-In . SVG Version: 6.00 Build 0)  -->
<svg version="1.1" id="Layer_1" xmlns="http://www.w3.org/2000/svg" xmlns:xlink="http://www.w3.org/1999/xlink" x="0px" y="0px"
	 viewBox="0 0 34 68" style="enable-background:new 0 0 34 68;" xml:space="preserve">
<style type="text/css">
	.st0{fill:none;stroke:#FFFFFF;stroke-width:2;stroke-miterlimit:10;}
	.st1{fill:#FFFFFF;stroke:#FFFFFF;}
	.st2{fill:none;stroke:#FF6400;stroke-width:2;stroke-miterlimit:10;}
	.st3{fill:#FF6400;stroke:#FF6400;}
</style>
<g transform="translate(1 1)">
	<ellipse class="st0" cx="16" cy="16.1" rx="15.1" ry="15.1"/>
	<path class="st1" d="M24.7,16.1L11.5,8.5v15.2L24.7,16.1z"/>
</g>
<g>
	<ellipse class="st2" cx="17" cy="51.4" rx="15.1" ry="15.1"/>
	<path class="st3" d="M25.7,51.4l-13.1-7.6V59L25.7,51.4z"/>
</g>
</svg>
